2014/11/07 15:11:44 [error] [php] Array to string conversion (/usr/share/nginx/www/chess.loc/testdrive/protected/controllers/SiteController.php:34)
Stack trace:
#0 /usr/share/nginx/www/chess.loc/framework/web/CController.php(286): SiteController->runAction()
#1 /usr/share/nginx/www/chess.loc/framework/web/CController.php(265): SiteController->runActionWithFilters()
#2 /usr/share/nginx/www/chess.loc/framework/web/CWebApplication.php(282): SiteController->run()
#3 /usr/share/nginx/www/chess.loc/framework/web/CWebApplication.php(141): CWebApplication->runController()
#4 /usr/share/nginx/www/chess.loc/framework/base/CApplication.php(180): CWebApplication->processRequest()
#5 /usr/share/nginx/www/chess.loc/testdrive/index.php(13): CWebApplication->run()
REQUEST_URI=/
in /usr/share/nginx/www/chess.loc/testdrive/protected/controllers/SiteController.php (34)
in /usr/share/nginx/www/chess.loc/testdrive/index.php (13)
2014/11/07 15:14:05 [error] [php] Undefined index: figure (/usr/share/nginx/www/chess.loc/testdrive/protected/controllers/SiteController.php:34)
Stack trace:
#0 /usr/share/nginx/www/chess.loc/framework/web/CController.php(286): SiteController->runAction()
#1 /usr/share/nginx/www/chess.loc/framework/web/CController.php(265): SiteController->runActionWithFilters()
#2 /usr/share/nginx/www/chess.loc/framework/web/CWebApplication.php(282): SiteController->run()
#3 /usr/share/nginx/www/chess.loc/framework/web/CWebApplication.php(141): CWebApplication->runController()
#4 /usr/share/nginx/www/chess.loc/framework/base/CApplication.php(180): CWebApplication->processRequest()
#5 /usr/share/nginx/www/chess.loc/testdrive/index.php(13): CWebApplication->run()
REQUEST_URI=/
in /usr/share/nginx/www/chess.loc/testdrive/protected/controllers/SiteController.php (34)
in /usr/share/nginx/www/chess.loc/testdrive/index.php (13)
2014/11/07 15:14:52 [error] [php] Undefined variable: figure (/usr/share/nginx/www/chess.loc/testdrive/protected/controllers/SiteController.php:34)
Stack trace:
#0 /usr/share/nginx/www/chess.loc/framework/web/CController.php(286): SiteController->runAction()
#1 /usr/share/nginx/www/chess.loc/framework/web/CController.php(265): SiteController->runActionWithFilters()
#2 /usr/share/nginx/www/chess.loc/framework/web/CWebApplication.php(282): SiteController->run()
#3 /usr/share/nginx/www/chess.loc/framework/web/CWebApplication.php(141): CWebApplication->runController()
#4 /usr/share/nginx/www/chess.loc/framework/base/CApplication.php(180): CWebApplication->processRequest()
#5 /usr/share/nginx/www/chess.loc/testdrive/index.php(13): CWebApplication->run()
REQUEST_URI=/
in /usr/share/nginx/www/chess.loc/testdrive/protected/controllers/SiteController.php (34)
in /usr/share/nginx/www/chess.loc/testdrive/index.php (13)
2014/11/07 15:16:59 [error] [php] Undefined index: data (/usr/share/nginx/www/chess.loc/testdrive/protected/controllers/SiteController.php:34)
Stack trace:
#0 /usr/share/nginx/www/chess.loc/framework/web/CController.php(286): SiteController->runAction()
#1 /usr/share/nginx/www/chess.loc/framework/web/CController.php(265): SiteController->runActionWithFilters()
#2 /usr/share/nginx/www/chess.loc/framework/web/CWebApplication.php(282): SiteController->run()
#3 /usr/share/nginx/www/chess.loc/framework/web/CWebApplication.php(141): CWebApplication->runController()
#4 /usr/share/nginx/www/chess.loc/framework/base/CApplication.php(180): CWebApplication->processRequest()
#5 /usr/share/nginx/www/chess.loc/testdrive/index.php(13): CWebApplication->run()
REQUEST_URI=/
in /usr/share/nginx/www/chess.loc/testdrive/protected/controllers/SiteController.php (34)
in /usr/share/nginx/www/chess.loc/testdrive/index.php (13)
2014/11/07 15:22:16 [error] [php] Undefined index: data (/usr/share/nginx/www/chess.loc/testdrive/protected/controllers/SiteController.php:34)
Stack trace:
#0 /usr/share/nginx/www/chess.loc/framework/web/CController.php(286): SiteController->runAction()
#1 /usr/share/nginx/www/chess.loc/framework/web/CController.php(265): SiteController->runActionWithFilters()
#2 /usr/share/nginx/www/chess.loc/framework/web/CWebApplication.php(282): SiteController->run()
#3 /usr/share/nginx/www/chess.loc/framework/web/CWebApplication.php(141): CWebApplication->runController()
#4 /usr/share/nginx/www/chess.loc/framework/base/CApplication.php(180): CWebApplication->processRequest()
#5 /usr/share/nginx/www/chess.loc/testdrive/index.php(13): CWebApplication->run()
REQUEST_URI=/
in /usr/share/nginx/www/chess.loc/testdrive/protected/controllers/SiteController.php (34)
in /usr/share/nginx/www/chess.loc/testdrive/index.php (13)
2014/11/07 15:51:41 [error] [exception.CHttpException.404] exception 'CHttpException' with message 'Unable to resolve the request "gii".' in /usr/share/nginx/www/chess.loc/framework/web/CWebApplication.php:286
Stack trace:
#0 /usr/share/nginx/www/chess.loc/framework/web/CWebApplication.php(141): CWebApplication->runController('gii')
#1 /usr/share/nginx/www/chess.loc/framework/base/CApplication.php(180): CWebApplication->processRequest()
#2 /usr/share/nginx/www/chess.loc/testdrive/index.php(13): CApplication->run()
#3 {main}
REQUEST_URI=/?r=gii
---
2014/11/07 15:51:51 [error] [exception.CHttpException.404] exception 'CHttpException' with message 'Unable to resolve the request "gii".' in /usr/share/nginx/www/chess.loc/framework/web/CWebApplication.php:286
Stack trace:
#0 /usr/share/nginx/www/chess.loc/framework/web/CWebApplication.php(141): CWebApplication->runController('gii')
#1 /usr/share/nginx/www/chess.loc/framework/base/CApplication.php(180): CWebApplication->processRequest()
#2 /usr/share/nginx/www/chess.loc/testdrive/index.php(13): CApplication->run()
#3 {main}
REQUEST_URI=/index.php?r=gii
---
2014/11/07 17:37:47 [error] [exception.CException] exception 'CException' with message 'Alias "application.components.UrlManager" is invalid. Make sure it points to an existing PHP file and the file is readable.' in /usr/share/nginx/www/chess.loc/framework/YiiBase.php:322
Stack trace:
#0 /usr/share/nginx/www/chess.loc/framework/YiiBase.php(196): YiiBase::import('application.com...', true)
#1 /usr/share/nginx/www/chess.loc/framework/base/CModule.php(386): YiiBase::createComponent(Array)
#2 /usr/share/nginx/www/chess.loc/framework/base/CApplication.php(522): CModule->getComponent('urlManager')
#3 /usr/share/nginx/www/chess.loc/framework/web/CWebApplication.php(140): CApplication->getUrlManager()
#4 /usr/share/nginx/www/chess.loc/framework/base/CApplication.php(180): CWebApplication->processRequest()
#5 /usr/share/nginx/www/chess.loc/testdrive/index.php(13): CApplication->run()
#6 {main}
REQUEST_URI=/index.php
---
2014/11/07 17:41:56 [error] [exception.CException] exception 'CException' with message 'Alias "application.components.CUrlManager" is invalid. Make sure it points to an existing PHP file and the file is readable.' in /usr/share/nginx/www/chess.loc/framework/YiiBase.php:322
Stack trace:
#0 /usr/share/nginx/www/chess.loc/framework/YiiBase.php(196): YiiBase::import('application.com...', true)
#1 /usr/share/nginx/www/chess.loc/framework/base/CModule.php(386): YiiBase::createComponent(Array)
#2 /usr/share/nginx/www/chess.loc/framework/base/CApplication.php(522): CModule->getComponent('urlManager')
#3 /usr/share/nginx/www/chess.loc/framework/web/CWebApplication.php(140): CApplication->getUrlManager()
#4 /usr/share/nginx/www/chess.loc/framework/base/CApplication.php(180): CWebApplication->processRequest()
#5 /usr/share/nginx/www/chess.loc/testdrive/index.php(13): CApplication->run()
#6 {main}
REQUEST_URI=/index.php
---
2014/11/10 14:33:11 [error] [exception.CException] exception 'CException' with message 'CDbConnection and its behaviors do not have a method or closure named "truncateTable".' in /usr/share/nginx/www/chess.loc/framework/base/CComponent.php:266
Stack trace:
#0 /usr/share/nginx/www/chess.loc/testdrive/protected/controllers/SiteController.php(41): CComponent->__call('truncateTable', Array)
#1 /usr/share/nginx/www/chess.loc/testdrive/protected/controllers/SiteController.php(41): CDbConnection->truncateTable('game')
#2 /usr/share/nginx/www/chess.loc/framework/web/actions/CInlineAction.php(49): SiteController->actionIndex()
#3 /usr/share/nginx/www/chess.loc/framework/web/CController.php(308): CInlineAction->runWithParams(Array)
#4 /usr/share/nginx/www/chess.loc/framework/web/CController.php(286): CController->runAction(Object(CInlineAction))
#5 /usr/share/nginx/www/chess.loc/framework/web/CController.php(265): CController->runActionWithFilters(Object(CInlineAction), Array)
#6 /usr/share/nginx/www/chess.loc/framework/web/CWebApplication.php(282): CController->run('')
#7 /usr/share/nginx/www/chess.loc/framework/web/CWebApplication.php(141): CWebApplication->runController('')
#8 /usr/share/nginx/www/chess.loc/framework/base/CApplication.php(180): CWebApplication->processRequest()
#9 /usr/share/nginx/www/chess.loc/testdrive/index.php(13): CApplication->run()
#10 {main}
REQUEST_URI=/
HTTP_REFERER=http://chess.loc/
---
2014/11/10 14:36:52 [error] [exception.CException] exception 'CException' with message 'Game and its behaviors do not have a method or closure named "truncateTable".' in /usr/share/nginx/www/chess.loc/framework/base/CComponent.php:266
Stack trace:
#0 /usr/share/nginx/www/chess.loc/framework/db/ar/CActiveRecord.php(227): CComponent->__call('truncateTable', Array)
#1 /usr/share/nginx/www/chess.loc/testdrive/protected/controllers/SiteController.php(41): CActiveRecord->__call('truncateTable', Array)
#2 /usr/share/nginx/www/chess.loc/testdrive/protected/controllers/SiteController.php(41): Game->truncateTable()
#3 /usr/share/nginx/www/chess.loc/framework/web/actions/CInlineAction.php(49): SiteController->actionIndex()
#4 /usr/share/nginx/www/chess.loc/framework/web/CController.php(308): CInlineAction->runWithParams(Array)
#5 /usr/share/nginx/www/chess.loc/framework/web/CController.php(286): CController->runAction(Object(CInlineAction))
#6 /usr/share/nginx/www/chess.loc/framework/web/CController.php(265): CController->runActionWithFilters(Object(CInlineAction), Array)
#7 /usr/share/nginx/www/chess.loc/framework/web/CWebApplication.php(282): CController->run('')
#8 /usr/share/nginx/www/chess.loc/framework/web/CWebApplication.php(141): CWebApplication->runController('')
#9 /usr/share/nginx/www/chess.loc/framework/base/CApplication.php(180): CWebApplication->processRequest()
#10 /usr/share/nginx/www/chess.loc/testdrive/index.php(13): CApplication->run()
#11 {main}
REQUEST_URI=/
HTTP_REFERER=http://chess.loc/
---
